<?xml version="1.0" encoding="iso-8859-1"?>
<!-- Generator: Adobe Illustrator 19.0.0, SVG Export Plug-In . SVG Version: 6.00 Build 0)  -->
<svg version="1.1" id="Capa_1" xmlns="http://www.w3.org/2000/svg" xmlns:xlink="http://www.w3.org/1999/xlink" x="0px" y="0px"
	 viewBox="0 0 512 512" style="enable-background:new 0 0 512 512;" xml:space="preserve">
<g>
	<g>
		<path d="M477.091,151.273H290.909c-6.982,0-11.636,4.655-11.636,11.636c0,6.982,4.655,11.636,11.636,11.636h186.182
			c6.982,0,11.636,4.655,11.636,11.636v209.455c0,6.982-4.655,11.636-11.636,11.636h-217.6c-12.8,0-24.436,4.655-34.909,11.636
			l-75.636,57.018c-3.491,2.327-9.309,0-9.309-4.655V232.727c0-6.982-4.655-11.636-11.636-11.636s-11.636,4.655-11.636,11.636
			v238.545c0,16.291,12.8,29.091,29.091,29.091c5.818,0,12.8-2.327,17.455-5.818l75.636-57.018
			c5.818-4.655,13.964-6.982,20.945-6.982h217.6c19.782,0,34.909-15.127,34.909-34.909V186.182
			C512,166.4,496.873,151.273,477.091,151.273z"/>
	</g>
</g>
<g>
	<g>
		<path d="M221.091,11.636H34.909C15.127,11.636,0,26.764,0,46.545v116.364c0,19.782,15.127,34.909,34.909,34.909h102.4
			c6.982,0,13.964,2.327,19.782,5.818l53.527,36.073c4.655,3.491,10.473,4.655,16.291,4.655c16.291,0,29.091-12.8,29.091-29.091
			V46.545C256,26.764,240.873,11.636,221.091,11.636z M232.727,215.273c0,4.655-5.818,8.146-9.309,4.655l-53.527-36.073
			c-9.309-5.818-20.945-9.309-32.582-9.309h-102.4c-6.982,0-11.636-4.655-11.636-11.636V46.545c0-6.982,4.655-11.636,11.636-11.636
			h186.182c6.982,0,11.636,4.655,11.636,11.636V215.273z"/>
	</g>
</g>
<g>
	<g>
		<circle cx="128" cy="104.727" r="11.636"/>
	</g>
</g>
<g>
	<g>
		<circle cx="314.182" cy="290.909" r="23.273"/>
	</g>
</g>
<g>
	<g>
		<circle cx="232.727" cy="290.909" r="23.273"/>
	</g>
</g>
<g>
	<g>
		<circle cx="395.636" cy="290.909" r="23.273"/>
	</g>
</g>
<g>
	<g>
		<circle cx="81.455" cy="104.727" r="11.636"/>
	</g>
</g>
<g>
	<g>
		<circle cx="174.545" cy="104.727" r="11.636"/>
	</g>
</g>
<g>
</g>
<g>
</g>
<g>
</g>
<g>
</g>
<g>
</g>
<g>
</g>
<g>
</g>
<g>
</g>
<g>
</g>
<g>
</g>
<g>
</g>
<g>
</g>
<g>
</g>
<g>
</g>
<g>
</g>
</svg>
